<?xml version="1.0" encoding="UTF-8" standalone="no"?>
<!-- Created with Inkscape (http://www.inkscape.org/) -->

<svg
   xmlns:dc="http://purl.org/dc/elements/1.1/"
   xmlns:cc="http://creativecommons.org/ns#"
   xmlns:rdf="http://www.w3.org/1999/02/22-rdf-syntax-ns#"
   xmlns:svg="http://www.w3.org/2000/svg"
   xmlns="http://www.w3.org/2000/svg"
   xmlns:sodipodi="http://sodipodi.sourceforge.net/DTD/sodipodi-0.dtd"
   xmlns:inkscape="http://www.inkscape.org/namespaces/inkscape"
   width="19.996492mm"
   height="20.387384mm"
   viewBox="0 0 19.996492 20.387384"
   version="1.1"
   id="svg8"
   inkscape:version="0.92.2 2405546, 2018-03-11"
   sodipodi:docname="logo.svg">
  <defs
     id="defs2"><style
   id="style1477">.cls-1{fill:#f8e6c5;}.cls-2{opacity:0.2;}.cls-3{fill:#fff;}.cls-3,.cls-4,.cls-5{stroke:#000;stroke-linecap:round;stroke-linejoin:round;stroke-width:20px;}.cls-4,.cls-5{fill:none;}.cls-5{stroke-dasharray:20.82 34.69;}</style>















</defs>
  <sodipodi:namedview
     id="base"
     pagecolor="#ffffff"
     bordercolor="#666666"
     borderopacity="1.0"
     inkscape:pageopacity="0.0"
     inkscape:pageshadow="2"
     inkscape:zoom="5.6568543"
     inkscape:cx="28.582492"
     inkscape:cy="40.651138"
     inkscape:document-units="mm"
     inkscape:current-layer="layer1"
     showgrid="false"
     inkscape:object-paths="true"
     inkscape:snap-intersection-paths="true"
     inkscape:snap-bbox="true"
     inkscape:snap-bbox-midpoints="true"
     inkscape:snap-bbox-edge-midpoints="true"
     inkscape:bbox-nodes="true"
     inkscape:bbox-paths="true"
     inkscape:snap-object-midpoints="true"
     inkscape:snap-nodes="true"
     inkscape:snap-center="true"
     inkscape:snap-smooth-nodes="true"
     inkscape:snap-midpoints="true"
     inkscape:snap-global="true"
     inkscape:window-width="1920"
     inkscape:window-height="1164"
     inkscape:window-x="0"
     inkscape:window-y="16"
     inkscape:window-maximized="1"
     fit-margin-top="0"
     fit-margin-left="0"
     fit-margin-right="0"
     fit-margin-bottom="0" />
  <metadata
     id="metadata5">
    <rdf:RDF>
      <cc:Work
         rdf:about="">
        <dc:format>image/svg+xml</dc:format>
        <dc:type
           rdf:resource="http://purl.org/dc/dcmitype/StillImage" />
        <dc:title></dc:title>
      </cc:Work>
    </rdf:RDF>
  </metadata>
  <g
     inkscape:label="Layer 1"
     inkscape:groupmode="layer"
     id="layer1"
     transform="translate(-70.047682,-80.130362)">
    <g
       id="g1601-8"
       transform="matrix(0.95249999,0,0,0.95249999,203.33229,9.2391671)" />
    <g
       id="g1603-9"
       transform="matrix(0.95249999,0,0,0.95249999,203.33229,9.2391671)" />
    <g
       id="g1605-8"
       transform="matrix(0.95249999,0,0,0.95249999,203.33229,9.2391671)" />
    <g
       id="g1607-8"
       transform="matrix(0.95249999,0,0,0.95249999,203.33229,9.2391671)" />
    <g
       id="g1609-0"
       transform="matrix(0.95249999,0,0,0.95249999,203.33229,9.2391671)" />
    <g
       id="g1611-3"
       transform="matrix(0.95249999,0,0,0.95249999,203.33229,9.2391671)" />
    <g
       id="g1613-7"
       transform="matrix(0.95249999,0,0,0.95249999,203.33229,9.2391671)" />
    <g
       id="g1615-0"
       transform="matrix(0.95249999,0,0,0.95249999,203.33229,9.2391671)" />
    <g
       id="g1617-6"
       transform="matrix(0.95249999,0,0,0.95249999,203.33229,9.2391671)" />
    <g
       id="g1619-9"
       transform="matrix(0.95249999,0,0,0.95249999,203.33229,9.2391671)" />
    <g
       id="g1621-2"
       transform="matrix(0.95249999,0,0,0.95249999,203.33229,9.2391671)" />
    <g
       id="g1623-1"
       transform="matrix(0.95249999,0,0,0.95249999,203.33229,9.2391671)" />
    <g
       id="g1625-7"
       transform="matrix(0.95249999,0,0,0.95249999,203.33229,9.2391671)" />
    <g
       id="g1627-7"
       transform="matrix(0.95249999,0,0,0.95249999,203.33229,9.2391671)" />
    <g
       id="g1629-9"
       transform="matrix(0.95249999,0,0,0.95249999,203.33229,9.2391671)" />
    <g
       id="g22329"
       transform="translate(-225.13291,97.029925)">
      <g
         transform="matrix(-0.45017206,0,0,-0.45017206,441.24548,-27.342907)"
         id="g17262-96-0">
        <path
           inkscape:connector-curvature="0"
           id="path1416-7-85-77"
           style="fill:#2ecc71;stroke-width:1.91106915"
           d="m 286.24316,-58.158334 -0.0331,24.715187 9.58841,-3.910106 v -20.830653 z m 19.11069,0.09922 -9.55535,-0.124791 v 20.830653 l 8.4804,-3.452565 z" />
        <path
           style="fill:#f1c40f;stroke-width:1.91106915"
           inkscape:connector-curvature="0"
           d="m 299.52289,-58.135266 5.05375,18.470319 5.55488,-0.937123 -4.50485,-17.460608 z"
           id="path1426-5-1-3"
           sodipodi:nodetypes="ccccc" />
        <path
           inkscape:connector-curvature="0"
           id="path1430-3-85-4"
           style="fill:#27ae60;stroke-width:1.91106915"
           d="m 314.90919,-58.183906 -0.0551,13.068901 9.61042,-3.916049 v -9.091453 z m -9.55534,0.124791 4.15985,15.120223 5.34039,-2.176113 0.0551,-13.068901 z" />
        <path
           id="path1434-6-2-6"
           style="fill:#3498db;stroke-width:1.91106915"
           d="m 314.93403,-39.391731 -9.57445,3.957225 -0.006,12.223165 9.55534,-0.01061 z m 9.40389,-3.88673 -9.40389,3.88673 -0.0248,16.169782 9.55535,0.01061 z m -18.97834,7.843955 -9.56108,3.951698 v 8.284245 l 9.55535,-0.01278 z m -9.5582,3.950508 -9.55819,3.950504 -3e-5,4.322153 9.55534,0.01278 z"
           inkscape:connector-curvature="0"
           sodipodi:nodetypes="cccccccccccccccccccc" />
        <path
           style="fill:#f1c40f;fill-opacity:1;stroke-width:1.91106915"
           inkscape:connector-curvature="0"
           d="m 324.46454,-49.031054 -38.25445,15.587907 0.0331,5.909653 38.09473,-15.744967 z"
           id="path1438-3-9-5"
           sodipodi:nodetypes="ccccc" />
      </g>
      <g
         id="g16679-9-1-07-5"
         transform="matrix(0.35403102,-0.27805922,0.27805922,0.35403102,276.18828,13.303367)">
        <g
           id="g16559-5-8-6-58">
          <path
             d="m 81.089588,5.3966153 2.101825,0.00235 0.255036,9.8493467 -2.356839,3.8e-5 z m -2.10194,-0.00243 2.101933,0.00243 v 9.8517387 l -2.360788,0.0076 z"
             style="fill:#ffffff;fill-opacity:1;stroke:none;stroke-width:0.1105626;stroke-linecap:butt;stroke-linejoin:miter;stroke-miterlimit:18.29999924;stroke-dasharray:none;stroke-dashoffset:0;stroke-opacity:1;paint-order:normal"
             id="rect1492-0-6-4-0-3-8-5-91-5-9-0-4-4-3-3-7-7-2-7-00-93"
             inkscape:connector-curvature="0" />
          <path
             d="m 79.089497,1.5141684 2.000084,-5.9692541 v 9.8517389 l -2.101933,-0.00247 z m 2.000091,-5.9692541 1.992534,5.6915649 0.109291,4.16249 -2.101789,-0.00232 z"
             style="fill:#000000;fill-opacity:1;stroke:none;stroke-width:0.1105626;stroke-linecap:butt;stroke-linejoin:miter;stroke-miterlimit:18.29999924;stroke-dasharray:none;stroke-dashoffset:0;stroke-opacity:1;paint-order:normal"
             id="rect1492-0-6-4-0-3-8-5-91-6-4-6-4-6-7-3-7-8-7-1-0-7-9"
             inkscape:connector-curvature="0" />
          <path
             d="m 78.728793,15.255852 2.360788,-0.0076 v 9.851739 l -2.619557,0.01139 z m 2.360795,-0.0075 h 2.356861 l 0.26341,9.852385 -2.620278,-6.46e-4 z"
             style="opacity:1;fill:#000000;fill-opacity:1;stroke:none;stroke-width:0.1105626;stroke-linecap:butt;stroke-linejoin:miter;stroke-miterlimit:18.29999924;stroke-dasharray:none;stroke-dashoffset:0;stroke-opacity:1;paint-order:normal"
             id="rect1492-0-6-4-0-3-8-5-91-6-7-2-7-7-7-2-0-9-3-7-3-5-32-6"
             inkscape:connector-curvature="0" />
          <path
             d="m 81.08966,25.100145 v 9.85175 l -4.9e-5,0.229596 c 0,0 -0.16847,0.0072 0.428263,-0.01672 0.365124,-0.01433 0.929789,-0.310373 1.324917,-0.585745 0.721265,-0.502651 1.07896,-1.378198 1.056651,-2.230594 l -0.189589,-7.24771 c -1.465762,-8.6e-4 -1.154553,-6.69e-4 -2.620169,-5.73e-4 z m -7.2e-5,-7.2e-5 v 9.851739 l 2.9e-5,0.229699 c 0,0 0.254242,0.0076 -0.342383,-0.01898 -0.365122,-0.01519 -1.154551,-0.319681 -1.473105,-0.63321 -0.33206,-0.326895 -1.031833,-0.73948 -0.990419,-2.317266 l 0.186314,-7.09926 c 2.619658,-0.01139 0,0 2.619564,-0.01139 z"
             style="opacity:1;fill:#ffffff;fill-opacity:1;stroke:none;stroke-width:0.11056261;stroke-linecap:butt;stroke-linejoin:miter;stroke-miterlimit:18.29999924;stroke-dasharray:none;stroke-dashoffset:0;stroke-opacity:1;paint-order:normal"
             id="rect1492-0-6-4-0-3-8-5-7-5-7-6-9-8-0-6-4-7-1-0-1-70-6"
             inkscape:connector-curvature="0" />
        </g>
        <g
           id="g16669-9-1-7-4">
          <path
             transform="scale(0.26458333)"
             id="XMLID_8_-13-3-6-7-9-0-1-1"
             d="m 305.5,-63.933594 c -0.0556,0 -0.11469,0.01452 -0.17383,0.02734 h -0.002 l -0.0176,-0.0039 -0.0176,0.0078 c 0,0 -0.002,0.002 -0.002,0.002 -0.12765,0.03282 -0.25642,0.09515 -0.38672,0.166016 -0.0966,0.05221 -0.18307,0.106502 -0.27344,0.167969 -0.0683,0.0465 -0.1085,0.06837 -0.16992,0.115234 -0.27729,0.20783 -0.48242,0.404297 -0.48242,0.404297 -0.87694,0.992539 -1.71524,1.964843 -2.52734,2.923828 -0.20574,0.24297 -0.396,0.477943 -0.59766,0.71875 -0.5908,0.705408 -1.17386,1.406802 -1.73047,2.09375 -0.24438,0.301666 -0.47499,0.594482 -0.71289,0.892578 -0.48858,0.612036 -0.97168,1.221312 -1.43359,1.81836 -0.25182,0.325595 -0.49229,0.643713 -0.73633,0.964843 -0.41974,0.552106 -0.83319,1.099727 -1.23047,1.638672 -0.22965,0.311684 -0.45154,0.620454 -0.67383,0.927735 -0.41957,0.579698 -0.82864,1.150794 -1.22265,1.714843 -0.15925,0.228082 -0.31555,0.456115 -0.47071,0.681641 -0.42871,0.622822 -0.84196,1.234562 -1.24023,1.837891 -0.11967,0.18137 -0.24044,0.363355 -0.35742,0.542968 -0.40208,0.617012 -0.78705,1.222115 -1.15821,1.81836 -0.10211,0.164114 -0.2068,0.331593 -0.30664,0.49414 -0.44321,0.721295 -0.86605,1.426839 -1.26562,2.117188 -10e-4,0.002 -0.003,0.0039 -0.004,0.0059 -6.78409,1.378137 -15.14389,3.865103 -25.32226,8.119141 0,0 -1.13534,0.56836 -1.32813,1.152344 -0.0667,0.202138 -0.0291,0.465099 0.0332,0.726562 l -0.002,0.04297 0.0137,0.0059 c 0.12168,0.475921 0.3418,0.925781 0.3418,0.925782 5.69328,9.328742 10.97169,16.175516 15.63672,21.2148432 -0.76469,6.775953 -0.94602,15.3690073 0.0195,26.2109378 0,0 0.10382,0.589072 0.33008,1.074219 l -0.006,0.0098 0.0234,0.03125 c 0.0973,0.19935 0.21185,0.38029 0.35742,0.484375 0.14524,0.103856 0.35402,0.154052 0.57617,0.183594 l 0.0371,0.01172 0.008,-0.0078 c 0.53913,0.06222 1.14063,-0.02344 1.14063,-0.02344 10.77457,-2.446403 19.0226,-5.270624 25.33398,-8.080079 6.31138,2.809455 14.55941,5.633676 25.33398,8.080079 0,0 0.60204,0.08547 1.14063,0.02344 l 0.008,0.0098 0.043,-0.01367 c 0.21976,-0.0297 0.42634,-0.08064 0.57031,-0.183594 0.14692,-0.10505 0.25954,-0.288649 0.35742,-0.490234 l 0.0195,-0.02539 -0.006,-0.0078 c 0.22731,-0.485514 0.33398,-1.076172 0.33398,-1.076172 0.96555,-10.8419304 0.78422,-19.4349848 0.0195,-26.2109378 4.66503,-5.0393272 9.94344,-11.8861012 15.63672,-21.2148432 0,0 0.23354,-0.478288 0.35156,-0.970704 l 0.0137,-0.0059 -0.002,-0.03711 c 0.0555,-0.248545 0.0868,-0.495558 0.0234,-0.6875 -0.19279,-0.583985 -1.32811,-1.152344 -1.32813,-1.152344 -10.17837,-4.254038 -18.53817,-6.741004 -25.32226,-8.119141 -0.001,-0.002 -0.003,-0.0039 -0.004,-0.0059 -0.39957,-0.690349 -0.82241,-1.395893 -1.26562,-2.117188 -0.0998,-0.162547 -0.20453,-0.330026 -0.30664,-0.49414 -0.37116,-0.596245 -0.75613,-1.201348 -1.15821,-1.81836 -0.11698,-0.179613 -0.23775,-0.361598 -0.35742,-0.542968 -0.39827,-0.603329 -0.81152,-1.215069 -1.24023,-1.837891 -0.15516,-0.225526 -0.31146,-0.453559 -0.47071,-0.681641 -0.39401,-0.564049 -0.80308,-1.135145 -1.22265,-1.714843 -0.22229,-0.307281 -0.44418,-0.616051 -0.67383,-0.927735 -0.39728,-0.538945 -0.81073,-1.086566 -1.23047,-1.638672 -0.24404,-0.32113 -0.48451,-0.639248 -0.73633,-0.964843 -0.46191,-0.597048 -0.94501,-1.206324 -1.43359,-1.81836 -0.2379,-0.298096 -0.46851,-0.590912 -0.71289,-0.892578 -0.55661,-0.686948 -1.13967,-1.388342 -1.73047,-2.09375 -0.20166,-0.240807 -0.39192,-0.47578 -0.59766,-0.71875 -0.8121,-0.958985 -1.6504,-1.931289 -2.52734,-2.923828 0,0 -0.50669,-0.498657 -1.02344,-0.748047 -0.17222,-0.08315 -0.34597,-0.138672 -0.50195,-0.138672 z"
             style="fill:#e70e0e;fill-opacity:1;stroke-width:0.68772221"
             inkscape:connector-curvature="0" />
          <ellipse
             ry="3.7547231"
             rx="3.8150463"
             transform="scale(-1)"
             id="XMLID_1_-41-4-1-9-1-3-3-5"
             cy="4.9115624"
             cx="-80.830208"
             class="st1"
             style="fill:#c80d0d;fill-opacity:1;stroke-width:0.18195984" />
        </g>
      </g>
    </g>
  </g>
  <style
     id="style1351"
     type="text/css">
	.st0{stroke:#000000;stroke-miterlimit:10;}
	.st1{fill:#FFFFFF;}
</style>
  <style
     id="style1371"
     type="text/css">
	.st0{fill:#134563;}
</style>
</svg>
