<?xml version="1.0" encoding="UTF-8" standalone="no"?>
<!-- Created with Inkscape (http://www.inkscape.org/) -->

<svg
   xmlns:dc="http://purl.org/dc/elements/1.1/"
   xmlns:cc="http://creativecommons.org/ns#"
   xmlns:rdf="http://www.w3.org/1999/02/22-rdf-syntax-ns#"
   xmlns:svg="http://www.w3.org/2000/svg"
   xmlns="http://www.w3.org/2000/svg"
   xmlns:sodipodi="http://sodipodi.sourceforge.net/DTD/sodipodi-0.dtd"
   xmlns:inkscape="http://www.inkscape.org/namespaces/inkscape"
   width="79.889137mm"
   height="48.373871mm"
   viewBox="0 0 79.889138 48.37387"
   version="1.1"
   id="svg8"
   inkscape:version="0.92.2 5c3e80d, 2017-08-06"
   sodipodi:docname="cloud3l.svg">
  <defs
     id="defs2" />
  <sodipodi:namedview
     id="base"
     pagecolor="#ffffff"
     bordercolor="#666666"
     borderopacity="1.0"
     inkscape:pageopacity="0.0"
     inkscape:pageshadow="2"
     inkscape:zoom="1.4142136"
     inkscape:cx="93.415684"
     inkscape:cy="143.65754"
     inkscape:document-units="mm"
     inkscape:current-layer="layer2"
     showgrid="false"
     inkscape:snap-bbox="false"
     inkscape:snap-bbox-midpoints="false"
     inkscape:bbox-nodes="true"
     inkscape:snap-bbox-edge-midpoints="false"
     inkscape:bbox-paths="false"
     inkscape:snap-object-midpoints="true"
     inkscape:snap-center="true"
     inkscape:snap-smooth-nodes="true"
     inkscape:snap-midpoints="true"
     inkscape:object-paths="false"
     inkscape:snap-intersection-paths="true"
     inkscape:snap-page="true"
     inkscape:snap-nodes="false"
     fit-margin-top="0"
     fit-margin-left="0"
     fit-margin-right="0"
     fit-margin-bottom="0"
     inkscape:window-width="1920"
     inkscape:window-height="1164"
     inkscape:window-x="0"
     inkscape:window-y="16"
     inkscape:window-maximized="1" />
  <metadata
     id="metadata5">
    <rdf:RDF>
      <cc:Work
         rdf:about="">
        <dc:format>image/svg+xml</dc:format>
        <dc:type
           rdf:resource="http://purl.org/dc/dcmitype/StillImage" />
        <dc:title></dc:title>
      </cc:Work>
    </rdf:RDF>
  </metadata>
  <g
     inkscape:groupmode="layer"
     id="layer2"
     inkscape:label="Layer 2"
     transform="translate(1.7198029,0.01499176)">
    <g
       id="g878"
       style="fill:#ffffff">
      <ellipse
         transform="scale(-1,1)"
         ry="18.181334"
         rx="19.314455"
         cy="18.166342"
         cx="-28.720327"
         id="path964"
         style="opacity:1;fill:#ffffff;fill-opacity:1;fill-rule:nonzero;stroke:none;stroke-width:0.63276994;stroke-linecap:butt;stroke-linejoin:miter;stroke-miterlimit:8.30000019;stroke-dasharray:none;stroke-opacity:1;paint-order:stroke fill markers" />
      <ellipse
         ry="13.97267"
         rx="13.943083"
         transform="scale(-1,1)"
         cy="34.385643"
         cx="-64.22625"
         id="path968"
         style="opacity:1;fill:#ffffff;fill-opacity:1;fill-rule:nonzero;stroke:none;stroke-width:0.831002;stroke-linecap:butt;stroke-linejoin:miter;stroke-miterlimit:8.30000019;stroke-dasharray:none;stroke-opacity:1;paint-order:stroke fill markers" />
      <rect
         transform="scale(-1,1)"
         y="25.093998"
         x="-64.230644"
         height="23.264879"
         width="52.007362"
         id="rect970"
         style="opacity:1;fill:#ffffff;fill-opacity:1;fill-rule:nonzero;stroke:none;stroke-width:1.45012927;stroke-linecap:butt;stroke-linejoin:miter;stroke-miterlimit:8.30000019;stroke-dasharray:none;stroke-opacity:1;paint-order:stroke fill markers" />
      <circle
         transform="scale(-1,1)"
         r="12.336364"
         cy="19.314444"
         cx="-53.830818"
         id="path1105"
         style="opacity:1;fill:#ffffff;fill-opacity:1;fill-rule:nonzero;stroke:none;stroke-width:0.54217237;stroke-linecap:butt;stroke-linejoin:miter;stroke-miterlimit:8.30000019;stroke-dasharray:none;stroke-opacity:1;paint-order:stroke fill markers" />
      <circle
         transform="scale(-1,1)"
         r="13.943083"
         cy="34.415794"
         cx="-12.22328"
         id="path968-5"
         style="opacity:1;fill:#ffffff;fill-opacity:1;fill-rule:nonzero;stroke:none;stroke-width:0.8301217;stroke-linecap:butt;stroke-linejoin:miter;stroke-miterlimit:8.30000019;stroke-dasharray:none;stroke-opacity:1;paint-order:stroke fill markers" />
    </g>
  </g>
</svg>
