<?xml version="1.0" encoding="UTF-8" standalone="no"?>
<!-- Created with Inkscape (http://www.inkscape.org/) -->

<svg
   xmlns:dc="http://purl.org/dc/elements/1.1/"
   xmlns:cc="http://creativecommons.org/ns#"
   xmlns:rdf="http://www.w3.org/1999/02/22-rdf-syntax-ns#"
   xmlns:svg="http://www.w3.org/2000/svg"
   xmlns="http://www.w3.org/2000/svg"
   xmlns:sodipodi="http://sodipodi.sourceforge.net/DTD/sodipodi-0.dtd"
   xmlns:inkscape="http://www.inkscape.org/namespaces/inkscape"
   width="64.000076"
   height="59.806725"
   viewBox="0 0 16.933347 15.823861"
   version="1.1"
   id="svg1804"
   inkscape:version="0.92.2 5c3e80d, 2017-08-06"
   sodipodi:docname="madislogo9.svg"
   inkscape:export-filename="/home/alexander/Documents/madislogoCIRCLE.png"
   inkscape:export-xdpi="96"
   inkscape:export-ydpi="96">
  <defs
     id="defs1798" />
  <sodipodi:namedview
     id="base"
     pagecolor="#ffffff"
     bordercolor="#666666"
     borderopacity="1.0"
     inkscape:pageopacity="0.0"
     inkscape:pageshadow="2"
     inkscape:zoom="5.6568543"
     inkscape:cx="-1.3291602"
     inkscape:cy="19.582982"
     inkscape:document-units="mm"
     inkscape:current-layer="layer4"
     showgrid="false"
     units="px"
     inkscape:snap-bbox="false"
     inkscape:snap-intersection-paths="true"
     inkscape:object-paths="true"
     inkscape:snap-center="false"
     inkscape:snap-object-midpoints="false"
     inkscape:snap-smooth-nodes="true"
     inkscape:snap-bbox-edge-midpoints="true"
     inkscape:snap-bbox-midpoints="true"
     inkscape:bbox-paths="true"
     inkscape:bbox-nodes="true"
     inkscape:snap-midpoints="true"
     inkscape:snap-page="true"
     inkscape:window-width="1920"
     inkscape:window-height="1164"
     inkscape:window-x="0"
     inkscape:window-y="16"
     inkscape:window-maximized="1"
     inkscape:snap-nodes="true"
     inkscape:snap-others="false"
     inkscape:snap-global="false"
     fit-margin-top="0"
     fit-margin-left="0"
     fit-margin-right="0"
     fit-margin-bottom="0" />
  <metadata
     id="metadata1801">
    <rdf:RDF>
      <cc:Work
         rdf:about="">
        <dc:format>image/svg+xml</dc:format>
        <dc:type
           rdf:resource="http://purl.org/dc/dcmitype/StillImage" />
        <dc:title></dc:title>
      </cc:Work>
    </rdf:RDF>
  </metadata>
  <g
     inkscape:groupmode="layer"
     id="layer3"
     inkscape:label="Layer 3"
     transform="translate(-3.2404356,-0.27298692)" />
  <g
     inkscape:label="Layer 1"
     inkscape:groupmode="layer"
     id="layer1"
     transform="translate(-3.2404356,-280.07509)"
     style="display:inline" />
  <g
     inkscape:groupmode="layer"
     id="layer7"
     inkscape:label="yellow"
     transform="translate(-3.2404356,-1.0667369)" />
  <g
     inkscape:groupmode="layer"
     id="layer9"
     inkscape:label="red2"
     transform="translate(-3.2404356,-1.0667369)" />
  <g
     inkscape:groupmode="layer"
     id="layer6"
     inkscape:label="red"
     transform="translate(-3.2404356,-1.0667369)" />
  <g
     inkscape:groupmode="layer"
     id="layer10"
     inkscape:label="blue2"
     transform="translate(-3.2404356,-1.0667369)" />
  <g
     inkscape:groupmode="layer"
     id="layer5"
     inkscape:label="blue"
     transform="translate(-3.2404356,-1.0667369)" />
  <g
     inkscape:groupmode="layer"
     id="layer11"
     inkscape:label="green2"
     transform="translate(-3.2404356,-1.0667369)" />
  <g
     inkscape:groupmode="layer"
     id="layer4"
     inkscape:label="green"
     transform="translate(-3.2404356,-1.0667369)">
    <g
       id="g2034">
      <rect
         transform="matrix(0.95566301,0.29446257,-0.5442108,0.83894851,0,-279.00834)"
         y="279.50259"
         x="170.25763"
         height="9.7744446"
         width="9.7223501"
         id="rect2364"
         style="display:inline;fill:#ffffff;fill-opacity:1;stroke:#fffef6;stroke-width:0.37591192;stroke-linecap:butt;stroke-linejoin:miter;stroke-miterlimit:18.29999924;stroke-dasharray:none;stroke-opacity:1;paint-order:normal" />
      <rect
         transform="matrix(0.95450141,0.29820637,-0.53891005,0.8423633,0,0)"
         y="2.0552101"
         x="12.146008"
         height="9.1279049"
         width="9.0017643"
         id="rect2364-0-6-6-2"
         style="display:inline;fill:#0e0e0e;fill-opacity:0.21226418;stroke:none;stroke-width:0.3495456;stroke-linecap:butt;stroke-linejoin:miter;stroke-miterlimit:18.29999924;stroke-dasharray:none;stroke-opacity:1;paint-order:normal" />
      <rect
         transform="matrix(0.95566301,0.29446257,-0.5442108,0.83894851,0,-279.00834)"
         y="278.3045"
         x="168.9688"
         height="9.7744446"
         width="9.7223501"
         id="rect2364-0"
         style="display:inline;fill:#ffffff;fill-opacity:1;stroke:#ffffff;stroke-width:0.37591195;stroke-linecap:butt;stroke-linejoin:miter;stroke-miterlimit:18.29999924;stroke-dasharray:none;stroke-opacity:1;paint-order:normal" />
      <rect
         transform="matrix(0.95509956,0.29628505,-0.54162259,0.84062178,0,0)"
         y="0.90272921"
         x="10.908714"
         height="8.9794331"
         width="8.8943424"
         id="rect2364-0-6-6-3"
         style="display:inline;fill:#0e0e0e;fill-opacity:0.21226418;stroke:none;stroke-width:0.34461632;stroke-linecap:butt;stroke-linejoin:miter;stroke-miterlimit:18.29999924;stroke-dasharray:none;stroke-opacity:1;paint-order:normal" />
      <rect
         transform="matrix(0.95566301,0.29446257,-0.5442108,0.83894851,0,-279.00834)"
         y="276.93295"
         x="167.56041"
         height="9.7744446"
         width="9.7223501"
         id="rect2364-3"
         style="display:inline;fill:#ffffff;fill-opacity:1;stroke:#ffffff;stroke-width:0.37591195;stroke-linecap:butt;stroke-linejoin:miter;stroke-miterlimit:18.29999924;stroke-dasharray:none;stroke-opacity:1;paint-order:normal" />
      <rect
         transform="matrix(0.95506029,0.29641157,-0.54144344,0.8407372,0,0)"
         y="-0.46442458"
         x="9.500699"
         height="9.1254721"
         width="9.0363798"
         id="rect2364-0-6-6"
         style="display:inline;fill:#0e0e0e;fill-opacity:0.21226418;stroke:none;stroke-width:0.35017034;stroke-linecap:butt;stroke-linejoin:miter;stroke-miterlimit:18.29999924;stroke-dasharray:none;stroke-opacity:1;paint-order:normal" />
      <rect
         transform="matrix(0.95566301,0.29446257,-0.5442108,0.83894851,0,-279.00834)"
         y="275.73486"
         x="166.27158"
         height="9.7744446"
         width="9.7223501"
         id="rect2364-0-6"
         style="display:inline;fill:#ffffff;fill-opacity:1;stroke:#ffffff;stroke-width:0.37591195;stroke-linecap:butt;stroke-linejoin:miter;stroke-miterlimit:18.29999924;stroke-dasharray:none;stroke-opacity:1;paint-order:normal" />
    </g>
  </g>
</svg>
