-----BEGIN PGP SIGNATURE-----

iQEcBAABAgAGBQJazMZtAAoJEFIKmZOhwFL4ck4H/jktPkExP1M1U/BKmOfK4whT
R4fyPT4JW6Sl8fWP26Ws//b9VwqBsfMgrh+tosS26gFqU/PY17hgD12mfGSKIvSh
DyQZ2G2bD140s3KCHUKbEuKp0JfAm2p+Fj88gys1oWf5Jy+U1YRFQqEA9SYjDGXQ
Do0TEcX34jNkGViDWTFH/WxrVpuO/X0UMqZ5Pi1UprZDXRXmufzt5171llVMrc57
3+DAYAn+Ve6L+XEYOI4N3YPgPrwZCbO4ZzPw5xdjd7LFRYfnu5eBdPcUAATTmnIb
orxow0q/wHJN+Nze1M+iDK6kEDw/RYQcBfNBR27fra4lW7jXTIoHS1vRK0l2Trg=
=cCkV
-----END PGP SIGNATURE-----
