<?xml version="1.0" encoding="UTF-8" standalone="no"?>
<!-- Created with Inkscape (http://www.inkscape.org/) -->

<svg
   xmlns:dc="http://purl.org/dc/elements/1.1/"
   xmlns:cc="http://creativecommons.org/ns#"
   xmlns:rdf="http://www.w3.org/1999/02/22-rdf-syntax-ns#"
   xmlns:svg="http://www.w3.org/2000/svg"
   xmlns="http://www.w3.org/2000/svg"
   xmlns:sodipodi="http://sodipodi.sourceforge.net/DTD/sodipodi-0.dtd"
   xmlns:inkscape="http://www.inkscape.org/namespaces/inkscape"
   width="13.084361mm"
   height="13.084361mm"
   viewBox="0 0 13.084361 13.084361"
   version="1.1"
   id="svg1092"
   inkscape:version="0.92.2 2405546, 2018-03-11"
   sodipodi:docname="favi3.svg">
  <defs
     id="defs1086" />
  <sodipodi:namedview
     id="base"
     pagecolor="#ffffff"
     bordercolor="#666666"
     borderopacity="1.0"
     inkscape:pageopacity="0.0"
     inkscape:pageshadow="2"
     inkscape:zoom="7.919596"
     inkscape:cx="-15.370406"
     inkscape:cy="31.016486"
     inkscape:document-units="mm"
     inkscape:current-layer="layer1"
     showgrid="false"
     fit-margin-top="0"
     fit-margin-left="0"
     fit-margin-right="0"
     fit-margin-bottom="0"
     inkscape:window-width="1920"
     inkscape:window-height="1164"
     inkscape:window-x="0"
     inkscape:window-y="16"
     inkscape:window-maximized="1" />
  <metadata
     id="metadata1089">
    <rdf:RDF>
      <cc:Work
         rdf:about="">
        <dc:format>image/svg+xml</dc:format>
        <dc:type
           rdf:resource="http://purl.org/dc/dcmitype/StillImage" />
        <dc:title></dc:title>
      </cc:Work>
    </rdf:RDF>
  </metadata>
  <g
     inkscape:label="Layer 1"
     inkscape:groupmode="layer"
     id="layer1"
     transform="translate(-85.684008,-136.99949)">
    <g
       transform="matrix(0.44843512,-0.33311051,0.33311051,0.44843512,57.590447,172.12924)"
       id="g16679-9-1-07-5-6">
      <g
         id="g16559-5-8-6-58-7" />
      <g
         id="g16669-9-1-7-4-2">
        <path
           inkscape:connector-curvature="0"
           style="fill:#e70e0e;fill-opacity:1;stroke-width:0.68772221"
           d="m 305.5,-63.933594 c -0.0556,0 -0.11469,0.01452 -0.17383,0.02734 h -0.002 l -0.0176,-0.0039 -0.0176,0.0078 c 0,0 -0.002,0.002 -0.002,0.002 -0.12765,0.03282 -0.25642,0.09515 -0.38672,0.166016 -0.0966,0.05221 -0.18307,0.106502 -0.27344,0.167969 -0.0683,0.0465 -0.1085,0.06837 -0.16992,0.115234 -0.27729,0.20783 -0.48242,0.404297 -0.48242,0.404297 -0.87694,0.992539 -1.71524,1.964843 -2.52734,2.923828 -0.20574,0.24297 -0.396,0.477943 -0.59766,0.71875 -0.5908,0.705408 -1.17386,1.406802 -1.73047,2.09375 -0.24438,0.301666 -0.47499,0.594482 -0.71289,0.892578 -0.48858,0.612036 -0.97168,1.221312 -1.43359,1.81836 -0.25182,0.325595 -0.49229,0.643713 -0.73633,0.964843 -0.41974,0.552106 -0.83319,1.099727 -1.23047,1.638672 -0.22965,0.311684 -0.45154,0.620454 -0.67383,0.927735 -0.41957,0.579698 -0.82864,1.150794 -1.22265,1.714843 -0.15925,0.228082 -0.31555,0.456115 -0.47071,0.681641 -0.42871,0.622822 -0.84196,1.234562 -1.24023,1.837891 -0.11967,0.18137 -0.24044,0.363355 -0.35742,0.542968 -0.40208,0.617012 -0.78705,1.222115 -1.15821,1.81836 -0.10211,0.164114 -0.2068,0.331593 -0.30664,0.49414 -0.44321,0.721295 -0.86605,1.426839 -1.26562,2.117188 -10e-4,0.002 -0.003,0.0039 -0.004,0.0059 -6.78409,1.378137 -15.14389,3.865103 -25.32226,8.119141 0,0 -1.13534,0.56836 -1.32813,1.152344 -0.0667,0.202138 -0.0291,0.465099 0.0332,0.726562 l -0.002,0.04297 0.0137,0.0059 c 0.12168,0.475921 0.3418,0.925781 0.3418,0.925782 5.69328,9.328742 10.97169,16.175516 15.63672,21.2148432 -0.76469,6.775953 -0.94602,15.3690073 0.0195,26.2109378 0,0 0.10382,0.589072 0.33008,1.074219 l -0.006,0.0098 0.0234,0.03125 c 0.0973,0.19935 0.21185,0.38029 0.35742,0.484375 0.14524,0.103856 0.35402,0.154052 0.57617,0.183594 l 0.0371,0.01172 0.008,-0.0078 c 0.53913,0.06222 1.14063,-0.02344 1.14063,-0.02344 10.77457,-2.446403 19.0226,-5.270624 25.33398,-8.080079 6.31138,2.809455 14.55941,5.633676 25.33398,8.080079 0,0 0.60204,0.08547 1.14063,0.02344 l 0.008,0.0098 0.043,-0.01367 c 0.21976,-0.0297 0.42634,-0.08064 0.57031,-0.183594 0.14692,-0.10505 0.25954,-0.288649 0.35742,-0.490234 l 0.0195,-0.02539 -0.006,-0.0078 c 0.22731,-0.485514 0.33398,-1.076172 0.33398,-1.076172 0.96555,-10.8419304 0.78422,-19.4349848 0.0195,-26.2109378 4.66503,-5.0393272 9.94344,-11.8861012 15.63672,-21.2148432 0,0 0.23354,-0.478288 0.35156,-0.970704 l 0.0137,-0.0059 -0.002,-0.03711 c 0.0555,-0.248545 0.0868,-0.495558 0.0234,-0.6875 -0.19279,-0.583985 -1.32811,-1.152344 -1.32813,-1.152344 -10.17837,-4.254038 -18.53817,-6.741004 -25.32226,-8.119141 -0.001,-0.002 -0.003,-0.0039 -0.004,-0.0059 -0.39957,-0.690349 -0.82241,-1.395893 -1.26562,-2.117188 -0.0998,-0.162547 -0.20453,-0.330026 -0.30664,-0.49414 -0.37116,-0.596245 -0.75613,-1.201348 -1.15821,-1.81836 -0.11698,-0.179613 -0.23775,-0.361598 -0.35742,-0.542968 -0.39827,-0.603329 -0.81152,-1.215069 -1.24023,-1.837891 -0.15516,-0.225526 -0.31146,-0.453559 -0.47071,-0.681641 -0.39401,-0.564049 -0.80308,-1.135145 -1.22265,-1.714843 -0.22229,-0.307281 -0.44418,-0.616051 -0.67383,-0.927735 -0.39728,-0.538945 -0.81073,-1.086566 -1.23047,-1.638672 -0.24404,-0.32113 -0.48451,-0.639248 -0.73633,-0.964843 -0.46191,-0.597048 -0.94501,-1.206324 -1.43359,-1.81836 -0.2379,-0.298096 -0.46851,-0.590912 -0.71289,-0.892578 -0.55661,-0.686948 -1.13967,-1.388342 -1.73047,-2.09375 -0.20166,-0.240807 -0.39192,-0.47578 -0.59766,-0.71875 -0.8121,-0.958985 -1.6504,-1.931289 -2.52734,-2.923828 0,0 -0.50669,-0.498657 -1.02344,-0.748047 -0.17222,-0.08315 -0.34597,-0.138672 -0.50195,-0.138672 z"
           id="XMLID_8_-13-3-6-7-9-0-1-1-9"
           transform="scale(0.26458333)" />
        <ellipse
           style="fill:#c80d0d;fill-opacity:1;stroke-width:0.18195984"
           class="st1"
           cx="-80.830208"
           cy="4.9115624"
           id="XMLID_1_-41-4-1-9-1-3-3-5-1"
           transform="scale(-1)"
           rx="3.8150463"
           ry="3.7547231" />
      </g>
    </g>
  </g>
</svg>
